content/articles/paleo-tv/capture.vcd
$timescale 1ns $end
$scope module logic $end
$var wire 1 ! D0 $end
$var wire 1 " D1 $end
$upscope $end
$enddefinitions $end
#0
0!
#0
0"
#130750
1"
#166750
0"
#169062
1"
#198750
0"
#201062
1"
#230750
0"
#233062
1"
#262750
0"
#265062
1"
#294750
0"
#297062
1"
#326750
0"
#354000
1"
#358750
0"
#386000
1"
#390750
0"
#418000
1"
#422750
0"
#450000
1"
#454750
0"
#482000
1"
#486750
0"
#489062
1"
#518750
0"
#521062
1"
#550750
0"
#553062
1"
#582750
0"
#585062
1"
#614750
0"
#617062
1"
#678750
0"
#683375
1"
#742750
0"
#747375
1"
#806750
0"
#811375
1"
#870750
0"
#875375
1"
#934750
0"
#939375
1"
#998750
0"
#1003374
1"
#1062750
0"
#1067375
1"
#1126750
0"
#1131375
1"
#1190750
0"
#1195375
1"
#1254750
0"
#1259375
1"
#1318750
0"
#1323375
1"
#1382750
0"
#1387375
1"
#1446750
0"
#1451375
1"
#1510750
0"
#1515375
1"
#1574750
0"
#1579375
1"
#1638750
0"
#1643375
1"
#1702750
0"
#1707375
1"
#1766750
0"
#1771375
1"
#1830750
0"
#1835375
1"
#1894750
0"
#1899375
1"
#1958750
0"
#1963374
1"
#2022749
0"
#2027375
1"
#2086750
0"
#2091375
1"
#2150750
0"
#2155375
1"
#2214750
0"
#2219375
1"
#2278750
0"
#2283375
1"
#2342750
0"
#2347375
1"
#2406750
0"
#2411375
1"
#2470750
0"
#2475375
1"
#2534750
0"
#2539375
1"
#2598750
0"
#2603375
1"
#2662750
0"
#2667375
1"
#2726750
0"
#2731375
1"
#2790750
0"
#2795375
1"
#2854750
0"
#2859375
1"
#2918750
0"
#2923375
1"
#2982750
0"
#2987375
1"
#3046750
0"
#3051375
1"
#3110750
0"
#3115375
1"
#3174750
0"
#3179375
1"
#3238750
0"
#3243375
1"
#3302750
0"
#3307375
1"
#3366750
0"
#3371375
1"
#3430750
0"
#3435375
1"
#3494750
0"
#3499375
1"
#3558750
0"
#3563375
1"
#3622750
0"
#3627375
1"
#3686750
0"
#3691375
1"
#3750750
0"
#3755375
1"
#3814750
0"
#3819375
1"
#3878750
0"
#3883375
1"
#3942750
0"
#3947375
1"
#4006750
0"
#4011375
1"
#4070749
0"
#4075375
1"
#4134750
0"
#4139375
1"
#4149687
1!
#4150062
0!
#4150437
1!
#4150812
0!
#4151562
1!
#4151937
0!
#4152687
1!
#4153437
0!
#4154187
1!
#4154937
0!
#4159062
1!
#4159437
0!
#4160187
1!
#4160562
0!
#4162062
1!
#4162437
0!
#4165062
1!
#4165437
0!
#4166562
1!
#4166937
0!
#4169187
1!
#4170312
0!
#4170687
1!
#4171062
0!
#4172562
1!
#4172937
0!
#4175562
1!
#4176312
0!
#4176687
1!
#4177437
0!
#4180062
1!
#4180812
0!
#4183062
1!
#4183437
0!
#4198750
0"
#4203375
1"
#4213687
1!
#4214062
0!
#4214437
1!
#4214812
0!
#4215562
1!
#4215937
0!
#4216687
1!
#4217437
0!
#4218187
1!
#4218937
0!
#4223062
1!
#4223437
0!
#4224187
1!
#4224562
0!
#4226062
1!
#4226437
0!
#4229062
1!
#4229437
0!
#4230562
1!
#4230937
0!
#4233187
1!
#4234312
0!
#4234687
1!
#4235062
0!
#4236562
1!
#4236937
0!
#4239562
1!
#4240312
0!
#4240687
1!
#4241437
0!
#4244062
1!
#4244812
0!
#4247062
1!
#4247437
0!
#4262750
0"
#4267375
1"
#4277687
1!
#4278062
0!
#4278437
1!
#4278812
0!
#4279187
1!
#4279562
0!
#4279937
1!
#4280312
0!
#4281062
1!
#4281437
0!
#4282562
1!
#4282937
0!
#4284062
1!
#4284437
0!
#4286687
1!
#4287812
0!
#4288187
1!
#4288562
0!
#4289687
1!
#4290062
0!
#4290437
1!
#4290812
0!
#4291187
1!
#4291937
0!
#4292687
1!
#4293062
0!
#4293437
1!
#4293812
0!
#4294562
1!
#4294937
0!
#4297562
1!
#4297937
0!
#4298687
1!
#4299062
0!
#4300187
1!
#4300562
0!
#4300937
1!
#4301312
0!
#4303562
1!
#4303937
0!
#4305062
1!
#4305437
0!
#4306562
1!
#4307312
0!
#4307687
1!
#4308062
0!
#4308437
1!
#4308812
0!
#4312562
1!
#4313312
0!
#4326750
0"
#4331375
1"
#4341687
1!
#4342062
0!
#4342437
1!
#4342812
0!
#4343187
1!
#4343562
0!
#4343937
1!
#4344312
0!
#4345062
1!
#4345437
0!
#4346562
1!
#4346937
0!
#4348062
1!
#4348437
0!
#4350687
1!
#4351812
0!
#4352187
1!
#4352562
0!
#4353687
1!
#4354062
0!
#4354437
1!
#4354812
0!
#4355187
1!
#4355937
0!
#4356687
1!
#4357062
0!
#4357437
1!
#4357812
0!
#4358562
1!
#4358937
0!
#4361562
1!
#4361937
0!
#4362687
1!
#4363062
0!
#4364187
1!
#4364562
0!
#4364937
1!
#4365312
0!
#4367562
1!
#4367937
0!
#4369062
1!
#4369437
0!
#4370562
1!
#4371312
0!
#4371687
1!
#4372062
0!
#4372437
1!
#4372812
0!
#4376562
1!
#4377312
0!
#4390750
0"
#4395375
1"
#4405687
1!
#4406812
0!
#4407187
1!
#4408312
0!
#4409062
1!
#4409437
0!
#4410562
1!
#4410937
0!
#4411687
1!
#4412062
0!
#4412437
1!
#4412812
0!
#4415062
1!
#4415437
0!
#4416187
1!
#4416937
0!
#4417687
1!
#4418812
0!
#4419187
1!
#4419562
0!
#4419937
1!
#4420312
0!
#4420687
1!
#4421812
0!
#4422562
1!
#4422937
0!
#4425562
1!
#4425937
0!
#4426687
1!
#4427437
0!
#4428187
1!
#4429312
0!
#4431187
1!
#4432312
0!
#4433062
1!
#4433437
0!
#4434187
1!
#4434562
0!
#4434937
1!
#4435312
0!
#4436062
1!
#4436812
0!
#4439062
1!
#4439437
0!
#4440562
1!
#4440937
0!
#4454750
0"
#4459375
1"
#4469687
1!
#4470812
0!
#4471187
1!
#4472312
0!
#4473062
1!
#4473437
0!
#4474562
1!
#4474937
0!
#4475687
1!
#4476062
0!
#4476437
1!
#4476812
0!
#4479062
1!
#4479437
0!
#4480187
1!
#4480937
0!
#4481687
1!
#4482812
0!
#4483187
1!
#4483562
0!
#4483937
1!
#4484312
0!
#4484687
1!
#4485812
0!
#4486562
1!
#4486937
0!
#4489562
1!
#4489937
0!
#4490687
1!
#4491437
0!
#4492187
1!
#4493312
0!
#4495187
1!
#4496312
0!
#4497062
1!
#4497437
0!
#4498187
1!
#4498562
0!
#4498937
1!
#4499312
0!
#4500062
1!
#4500812
0!
#4503062
1!
#4503437
0!
#4504562
1!
#4504937
0!
#4518750
0"
#4523375
1"
#4533687
1!
#4534062
0!
#4534437
1!
#4534812
0!
#4535187
1!
#4535562
0!
#4537062
1!
#4537437
0!
#4538562
1!
#4538937
0!
#4539687
1!
#4540062
0!
#4540437
1!
#4540812
0!
#4543062
1!
#4543437
0!
#4544187
1!
#4544562
0!
#4544937
1!
#4545312
0!
#4545687
1!
#4546062
0!
#4547187
1!
#4547562
0!
#4548687
1!
#4549062
0!
#4553562
1!
#4553937
0!
#4554687
1!
#4555062
0!
#4555437
1!
#4555812
0!
#4556187
1!
#4556562
0!
#4559562
1!
#4559937
0!
#4561062
1!
#4561437
0!
#4562187
1!
#4562562
0!
#4562937
1!
#4563312
0!
#4564437
1!
#4564812
0!
#4567062
1!
#4567437
0!
#4568937
1!
#4569312
0!
#4582750
0"
#4587375
1"
#4597687
1!
#4598062
0!
#4598437
1!
#4598812
0!
#4599187
1!
#4599562
0!
#4601062
1!
#4601437
0!
#4602562
1!
#4602937
0!
#4603687
1!
#4604062
0!
#4604437
1!
#4604812
0!
#4607062
1!
#4607437
0!
#4608187
1!
#4608562
0!
#4608937
1!
#4609312
0!
#4609687
1!
#4610062
0!
#4611187
1!
#4611562
0!
#4612687
1!
#4613062
0!
#4617562
1!
#4617937
0!
#4618687
1!
#4619062
0!
#4619437
1!
#4619812
0!
#4620187
1!
#4620562
0!
#4623562
1!
#4623937
0!
#4625062
1!
#4625437
0!
#4626187
1!
#4626562
0!
#4626937
1!
#4627312
0!
#4628437
1!
#4628812
0!
#4631062
1!
#4631437
0!
#4632937
1!
#4633312
0!
#4646750
0"
#4651375
1"
#4661687
1!
#4662062
0!
#4662437
1!
#4662812
0!
#4663562
1!
#4664312
0!
#4664687
1!
#4665812
0!
#4666187
1!
#4667312
0!
#4668062
1!
#4668437
0!
#4671062
1!
#4671437
0!
#4672187
1!
#4672562
0!
#4672937
1!
#4673312
0!
#4674062
1!
#4674812
0!
#4675187
1!
#4675562
0!
#4677062
1!
#4677812
0!
#4678562
1!
#4678937
0!
#4681562
1!
#4681937
0!
#4682687
1!
#4683062
0!
#4683437
1!
#4683812
0!
#4684562
1!
#4685312
0!
#4687562
1!
#4687937
0!
#4688687
1!
#4689812
0!
#4690562
1!
#4691312
0!
#4691687
1!
#4692437
0!
#4695062
1!
#4695437
0!
#4696562
1!
#4697312
0!
#4699187
1!
#4699562
0!
#4700687
1!
#4701062
0!
#4702187
1!
#4702562
0!
#4710750
0"
#4715375
1"
#4725687
1!
#4726062
0!
#4726437
1!
#4726812
0!
#4727562
1!
#4728312
0!
#4728687
1!
#4729812
0!
#4730187
1!
#4731312
0!
#4732062
1!
#4732437
0!
#4735062
1!
#4735437
0!
#4736187
1!
#4736562
0!
#4736937
1!
#4737312
0!
#4738062
1!
#4738812
0!
#4739187
1!
#4739562
0!
#4741062
1!
#4741812
0!
#4742562
1!
#4742937
0!
#4745562
1!
#4745937
0!
#4746687
1!
#4747062
0!
#4747437
1!
#4747812
0!
#4748562
1!
#4749312
0!
#4751562
1!
#4751937
0!
#4752687
1!
#4753812
0!
#4754562
1!
#4755312
0!
#4755687
1!
#4756437
0!
#4759062
1!
#4759437
0!
#4760562
1!
#4761312
0!
#4763187
1!
#4763562
0!
#4764687
1!
#4765062
0!
#4766187
1!
#4766562
0!
#4774750
0"
#4779375
1"
#4838750
0"
#4843375
1"
#4902750
0"
#4907375
1"
#4966750
0"
#4971375
1"
#5030750
0"
#5035375
1"
#5094750
0"
#5099375
1"
#5158750
0"
#5163375
1"
#5222750
0"
#5227375
1"
#5286750
0"
#5291375
1"
#5350750
0"
#5355375
1"
#5414750
0"
#5419375
1"
#5478750
0"
#5483375
1"
#5542750
0"
#5547375
1"
#5606750
0"
#5611375
1"
#5670750
0"
#5675375
1"
#5734750
0"
#5739375
1"
#5798750
0"
#5803375
1"
#5862750
0"
#5867375
1"
#5926750
0"
#5931375
1"
#5990750
0"
#5995375
1"
#6054750
0"
#6059375
1"
#6118750
0"
#6123375
1"
#6182750
0"
#6187375
1"
#6246750
0"
#6251375
1"
#6310750
0"
#6315375
1"
#6374750
0"
#6379375
1"
#6438750
0"
#6443375
1"
#6502750
0"
#6507375
1"
#6566750
0"
#6571375
1"
#6630750
0"
#6635375
1"
#6694750
0"
#6699375
1"
#6758750
0"
#6763375
1"
#6822750
0"
#6827375
1"
#6886750
0"
#6891375
1"
#6950750
0"
#6955375
1"
#7014750
0"
#7019375
1"
#7078750
0"
#7083375
1"
#7142750
0"
#7147375
1"
#7206750
0"
#7211375
1"
#7270750
0"
#7275375
1"
#7334750
0"
#7339375
1"
#7398750
0"
#7403375
1"
#7462750
0"
#7467375
1"
#7526750
0"
#7531375
1"
#7590750
0"
#7595375
1"
#7654750
0"
#7659375
1"
#7718750
0"
#7723375
1"
#7782750
0"
#7787375
1"
#7846750
0"
#7851375
1"
#7910749
0"
#7915375
1"
#7974749
0"
#7979375
1"
#8038750
0"
#8043375
1"
#8102750
0"
#8107375
1"
#8166750
0"
#8171375
1"
#8230750
0"
#8235375
1"
#8294750
0"
#8299374
1"
#8358750
0"
#8363374
1"
#8422750
0"
#8427375
1"
#8486750
0"
#8491375
1"
#8550750
0"
#8555375
1"
#8614750
0"
#8619375
1"
#8678750
0"
#8683375
1"
#8742750
0"
#8747375
1"
#8806750
0"
#8811375
1"
#8870750
0"
#8875375
1"
#8934750
0"
#8939375
1"
#8998750
0"
#9003375
1"
#9062750
0"
#9067375
1"
#9126750
0"
#9131375
1"
#9190750
0"
#9195375
1"
#9254750
0"
#9259375
1"
#9318750
0"
#9323375
1"
#9382750
0"
#9387375
1"
#9446750
0"
#9451375
1"
#9510750
0"
#9515375
1"
#9574750
0"
#9579375
1"
#9638750
0"
#9643375
1"
#9702750
0"
#9707375
1"
#9766750
0"
#9771375
1"
#9830750
0"
#9835375
1"
#9894750
0"
#9899375
1"
#9958750
0"
#9963375
1"
#10022750
0"
#10027375
1"
#10086750
0"
#10091375
1"
#10150750
0"
#10155375
1"
#10214750
0"
#10219375
1"
#10278750
0"
#10283375
1"
#10342750
0"
#10347375
1"
#10406750
0"
#10411375
1"
#10470750
0"
#10475375
1"
#10534750
0"
#10539375
1"
#10598750
0"
#10603375
1"
#10662750
0"
#10667375
1"
#10726750
0"
#10731375
1"
#10790750
0"
#10795375
1"
#10854750
0"
#10859375
1"
#10918750
0"
#10923375
1"
#10982750
0"
#10987375
1"
#11046750
0"
#11051375
1"
#11110750
0"
#11115375
1"
#11174750
0"
#11179375
1"
#11238750
0"
#11243375
1"
#11302750
0"
#11307375
1"
#11366750
0"
#11371375
1"
#11430750
0"
#11435375
1"
#11494750
0"
#11499375
1"
#11558750
0"
#11563375
1"
#11622750
0"
#11627375
1"
#11686750
0"
#11691375
1"
#11750750
0"
#11755375
1"
#11814750
0"
#11819375
1"
#11878750
0"
#11883375
1"
#11942750
0"
#11947375
1"
#12006750
0"
#12011375
1"
#12070750
0"
#12075375
1"
#12134750
0"
#12139375
1"
#12198750
0"
#12203375
1"
#12262750
0"
#12267375
1"
#12326750
0"
#12331375
1"
#12390750
0"
#12395375
1"
#12454750
0"
#12459375
1"
#12518750
0"
#12523375
1"
#12582750
0"
#12587375
1"
#12646750
0"
#12651375
1"
#12710750
0"
#12715375
1"
#12774750
0"
#12779375
1"
#12838750
0"
#12843375
1"
#12902750
0"
#12907375
1"
#12966750
0"
#12971375
1"
#13030750
0"
#13035375
1"
#13094750
0"
#13099375
1"
#13158750
0"
#13163375
1"
#13222750
0"
#13227375
1"
#13286750
0"
#13291375
1"
#13350750
0"
#13355375
1"
#13414750
0"
#13419375
1"
#13478750
0"
#13483375
1"
#13542750
0"
#13547375
1"
#13606750
0"
#13611375
1"
#13670750
0"
#13675375
1"
#13734750
0"
#13739375
1"
#13798750
0"
#13803375
1"
#13862750
0"
#13867375
1"
#13926750
0"
#13931375
1"
#13990750
0"
#13995375
1"
#14054750
0"
#14059375
1"
#14118750
0"
#14123375
1"
#14182750
0"
#14187375
1"
#14246750
0"
#14251375
1"
#14310750
0"
#14315375
1"
#14374750
0"
#14379375
1"
#14438750
0"
#14443375
1"
#14502750
0"
#14507375
1"
#14566750
0"
#14571375
1"
#14630750
0"
#14635375
1"
#14694750
0"
#14699375
1"
#14758750
0"
#14763375
1"
#14822750
0"
#14827375
1"
#14886750
0"
#14891375
1"
#14950750
0"
#14955375
1"
#15014750
0"
#15019375
1"
#15078750
0"
#15083375
1"
#15142750
0"
#15147375
1"
#15206750
0"
#15211375
1"
#15270750
0"
#15275375
1"
#15334750
0"
#15339375
1"
#15398750
0"
#15403375
1"
#15462750
0"
#15467375
1"
#15526750
0"
#15531375
1"
#15590750
0"
#15595375
1"
#15654749
0"
#15659375
1"
#15718750
0"
#15723375
1"
#15782750
0"
#15787375
1"
#15846750
0"
#15851375
1"
#15910750
0"
#15915374
1"
#15974750
0"
#15979375
1"
#16038750
0"
#16043374
1"
#16102749
0"
#16107375
1"
#16166750
0"
#16171375
1"
#16230749
0"
#16235375
1"
#16294750
0"
#16299375
1"
#16358749
0"
#16363375
1"
#16422750
0"
#16427375
1"
#16486750
0"
#16491375
1"
#16550750
0"
#16555375
1"
#16614750
0"
#16619374
1"
#16678750
0"
#16683375
1"
#16742750
0"
#16747374
1"
#16806750
0"
#16811375
1"
#16870750
0"
#16875375
1"
#16934750
0"
#16939375
1"
#16998750
0"
#17003375
1"
#17062750
0"
#17067375
1"
#17126750
0"
#17131375
1"
#17190750
0"
#17195375
1"
#17254750
0"
#17259375
1"
#17318750
0"
#17323375
1"
#17382750
0"
#17387375
1"
#17446750
0"
#17451375
1"
#17510750
0"
#17515375
1"
#17574750
0"
#17579375
1"
#17638750
0"
#17643375
1"
#17702750
0"
#17707375
1"
#17766750
0"
#17771375
1"
#17830750
0"
#17835375
1"
#17894750
0"
#17899375
1"
#17958750
0"
#17963375
1"
#18022750
0"
#18027375
1"
#18086750
0"
#18091375
1"
#18150750
0"
#18155375
1"
#18214750
0"
#18219375
1"
#18278750
0"
#18283375
1"
#18342750
0"
#18347375
1"
#18406750
0"
#18411375
1"
#18470750
0"
#18475375
1"
#18534750
0"
#18539375
1"
#18598750
0"
#18603375
1"
#18662750
0"
#18667375
1"
#18726750
0"
#18731375
1"
#18790750
0"
#18795375
1"
#18854750
0"
#18859375
1"
#18918750
0"
#18923375
1"
#18982750
0"
#18987375
1"
#19046750
0"
#19051375
1"
#19110750
0"
#19115375
1"
#19174750
0"
#19179375
1"
#19238750
0"
#19243375
1"
#19302750
0"
#19307375
1"
#19366750
0"
#19371375
1"
#19430750
0"
#19435375
1"
#19494750
0"
#19499375
1"
#19558750
0"
#19563375
1"
#19622750
0"
#19627375
1"
#19686750
0"
#19691375
1"
#19750750
0"
#19755375
1"
#19814750
0"
#19819375
1"
#19878750
0"
#19883375
1"
#19942750
0"
#19947375
1"
#20006750
0"
#20011375
1"
#20070750
0"
#20075375
1"
#20134750
0"
#20139375
1"
#20166750
0"
#20169062
1"
#20198750
0"
#20201062
1"
#20230750
0"
#20233062
1"
#20262750
0"
#20265062
1"
#20294750
0"
#20297062
1"
#20326750
0"
#20354000
1"
#20358750
0"
#20386000
1"
#20390750
0"
#20418000
1"
#20422750
0"
#20450000
1"
#20454750
0"
#20482000
1"
#20486750
0"
#20489062
1"
#20518750
0"
#20521062
1"
#20550750
0"
#20553062
1"
#20582750
0"
#20585062
1"
#20646750
0"
#20651375
1"
#20710750
0"
#20715375
1"
#20774750
0"
#20779375
1"
#20838750
0"
#20843375
1"
#20902750
0"
#20907375
1"
#20966750
0"
#20971375
1"
#21030750
0"
#21035375
1"
#21094750
0"
#21099375
1"
#21158750
0"
#21163375
1"
#21222750
0"
#21227375
1"
#21286750
0"
#21291375
1"
#21350750
0"
#21355375
1"
#21414750
0"
#21419375
1"
#21478750
0"
#21483375
1"
#21542750
0"
#21547375
1"
#21606750
0"
#21611375
1"
#21670750
0"
#21675375
1"
#21734750
0"
#21739375
1"
#21798750
0"
#21803375
1"
#21862750
0"
#21867375
1"
#21926750
0"
#21931375
1"
#21990750
0"
#21995375
1"
#22054750
0"
#22059375
1"
#22118750
0"
#22123375
1"
#22182750
0"
#22187375
1"
#22246750
0"
#22251375
1"
#22310750
0"
#22315375
1"
#22374750
0"
#22379375
1"
#22438750
0"
#22443375
1"
#22502750
0"
#22507375
1"
#22566750
0"
#22571375
1"
#22630750
0"
#22635375
1"
#22694750
0"
#22699375
1"
#22758750
0"
#22763375
1"
#22822750
0"
#22827375
1"
#22886750
0"
#22891375
1"
#22950750
0"
#22955375
1"
#23014750
0"
#23019375
1"
#23078750
0"
#23083375
1"
#23142750
0"
#23147375
1"
#23206750
0"
#23211375
1"
#23270750
0"
#23275375
1"
#23334750
0"
#23339375
1"
#23398750
0"
#23403375
1"
#23462750
0"
#23467375
1"
#23526750
0"
#23531375
1"
#23590750
0"
#23595375
1"
#23654750
0"
#23659375
1"
#23718750
0"
#23723375
1"
#23782750
0"
#23787375
1"
#23846750
0"
#23851375
1"
#23910750
0"
#23915375
1"
#23974750
0"
#23979375
1"
#24038750
0"
#24043375
1"
#24102750
0"
#24107375
1"
#24117687
1!
#24118062
0!
#24118437
1!
#24118812
0!
#24119562
1!
#24119937
0!
#24120687
1!
#24121437
0!
#24122187
1!
#24122937
0!
#24127062
1!
#24127437
0!
#24128187
1!
#24128562
0!
#24130062
1!
#24130437
0!
#24133062
1!
#24133437
0!
#24134562
1!
#24134937
0!
#24137187
1!
#24138312
0!
#24138687
1!
#24139062
0!
#24140562
1!
#24140937
0!
#24143562
1!
#24144312
0!
#24144687
1!
#24145437
0!
#24148062
1!
#24148812
0!
#24151062
1!
#24151437
0!
#24166750
0"
#24171375
1"
#24181687
1!
#24182062
0!
#24182437
1!
#24182812
0!
#24183562
1!
#24183937
0!
#24184687
1!
#24185437
0!
#24186187
1!
#24186937
0!
#24191062
1!
#24191437
0!
#24192187
1!
#24192562
0!
#24194062
1!
#24194437
0!
#24197062
1!
#24197437
0!
#24198562
1!
#24198937
0!
#24201187
1!
#24202312
0!
#24202687
1!
#24203062
0!
#24204562
1!
#24204937
0!
#24207562
1!
#24208312
0!
#24208687
1!
#24209437
0!
#24212062
1!
#24212812
0!
#24215062
1!
#24215437
0!
#24230750
0"
#24235375
1"
#24245687
1!
#24246062
0!
#24246437
1!
#24246812
0!
#24247187
1!
#24247562
0!
#24247937
1!
#24248312
0!
#24249062
1!
#24249437
0!
#24250562
1!
#24250937
0!
#24252062
1!
#24252437
0!
#24254687
1!
#24255812
0!
#24256187
1!
#24256562
0!
#24257687
1!
#24258062
0!
#24258437
1!
#24258812
0!
#24259187
1!
#24259937
0!
#24260687
1!
#24261062
0!
#24261437
1!
#24261812
0!
#24262562
1!
#24262937
0!
#24265562
1!
#24265937
0!
#24266687
1!
#24267062
0!
#24268187
1!
#24268562
0!
#24268937
1!
#24269312
0!
#24271562
1!
#24271937
0!
#24273062
1!
#24273437
0!
#24274562
1!
#24275312
0!
#24275687
1!
#24276062
0!
#24276437
1!
#24276812
0!
#24280562
1!
#24281312
0!
#24294750
0"
#24299375
1"
#24309687
1!
#24310062
0!
#24310437
1!
#24310812
0!
#24311187
1!
#24311562
0!
#24311937
1!
#24312312
0!
#24313062
1!
#24313437
0!
#24314562
1!
#24314937
0!
#24316062
1!
#24316437
0!
#24318687
1!
#24319812
0!
#24320187
1!
#24320562
0!
#24321687
1!
#24322062
0!
#24322437
1!
#24322812
0!
#24323187
1!
#24323937
0!
#24324687
1!
#24325062
0!
#24325437
1!
#24325812
0!
#24326562
1!
#24326937
0!
#24329562
1!
#24329937
0!
#24330687
1!
#24331062
0!
#24332187
1!
#24332562
0!
#24332937
1!
#24333312
0!
#24335562
1!
#24335937
0!
#24337062
1!
#24337437
0!
#24338562
1!
#24339312
0!
#24339687
1!
#24340062
0!
#24340437
1!
#24340812
0!
#24344562
1!
#24345312
0!
#24358750
0"
#24363375
1"
#24373687
1!
#24374812
0!
#24375187
1!
#24376312
0!
#24377062
1!
#24377437
0!
#24378562
1!
#24378937
0!
#24379687
1!
#24380062
0!
#24380437
1!
#24380812
0!
#24383062
1!
#24383437
0!
#24384187
1!
#24384937
0!
#24385687
1!
#24386812
0!
#24387187
1!
#24387562
0!
#24387937
1!
#24388312
0!
#24388687
1!
#24389812
0!
#24390562
1!
#24390937
0!
#24393562
1!
#24393937
0!
#24394687
1!
#24395437
0!
#24396187
1!
#24397312
0!
#24399187
1!
#24400312
0!
#24401062
1!
#24401437
0!
#24402187
1!
#24402562
0!
#24402937
1!
#24403312
0!
#24404062
1!
#24404812
0!
#24407062
1!
#24407437
0!
#24408562
1!
#24408937
0!
#24422750
0"
#24427375
1"
#24437687
1!
#24438812
0!
#24439187
1!
#24440312
0!
#24441062
1!
#24441437
0!
#24442562
1!
#24442937
0!
#24443687
1!
#24444062
0!
#24444437
1!
#24444812
0!
#24447062
1!
#24447437
0!
#24448187
1!
#24448937
0!
#24449687
1!
#24450812
0!
#24451187
1!
#24451562
0!
#24451937
1!
#24452312
0!
#24452687
1!
#24453812
0!
#24454562
1!
#24454937
0!
#24457562
1!
#24457937
0!
#24458687
1!
#24459437
0!
#24460187
1!
#24461312
0!
#24463187
1!
#24464312
0!
#24465062
1!
#24465437
0!
#24466187
1!
#24466562
0!
#24466937
1!
#24467312
0!
#24468062
1!
#24468812
0!
#24471062
1!
#24471437
0!
#24472562
1!
#24472937
0!
#24486750
0"
#24491375
1"
#24501687
1!
#24502062
0!
#24502437
1!
#24502812
0!
#24503187
1!
#24503562
0!
#24505062
1!
#24505437
0!
#24506562
1!
#24506937
0!
#24507687
1!
#24508062
0!
#24508437
1!
#24508812
0!
#24511062
1!
#24511437
0!
#24512187
1!
#24512562
0!
#24512937
1!
#24513312
0!
#24513687
1!
#24514062
0!
#24515187
1!
#24515562
0!
#24516687
1!
#24517062
0!
#24521562
1!
#24521937
0!
#24522687
1!
#24523062
0!
#24523437
1!
#24523812
0!
#24524187
1!
#24524562
0!
#24527562
1!
#24527937
0!
#24529062
1!
#24529437
0!
#24530187
1!
#24530562
0!
#24530937
1!
#24531312
0!
#24532437
1!
#24532812
0!
#24535062
1!
#24535437
0!
#24536937
1!
#24537312
0!
#24550750
0"
#24555375
1"
#24565687
1!
#24566062
0!
#24566437
1!
#24566812
0!
#24567187
1!
#24567562
0!
#24569062
1!
#24569437
0!
#24570562
1!
#24570937
0!
#24571687
1!
#24572062
0!
#24572437
1!
#24572812
0!
#24575062
1!
#24575437
0!
#24576187
1!
#24576562
0!
#24576937
1!
#24577312
0!
#24577687
1!
#24578062
0!
#24579187
1!
#24579562
0!
#24580687
1!
#24581062
0!
#24585562
1!
#24585937
0!
#24586687
1!
#24587062
0!
#24587437
1!
#24587812
0!
#24588187
1!
#24588562
0!
#24591562
1!
#24591937
0!
#24593062
1!
#24593437
0!
#24594187
1!
#24594562
0!
#24594937
1!
#24595312
0!
#24596437
1!
#24596812
0!
#24599062
1!
#24599437
0!
#24600937
1!
#24601312
0!
#24614750
0"
#24619375
1"
#24629687
1!
#24630062
0!
#24630437
1!
#24630812
0!
#24631562
1!
#24632312
0!
#24632687
1!
#24633812
0!
#24634187
1!
#24635312
0!
#24636062
1!
#24636437
0!
#24639062
1!
#24639437
0!
#24640187
1!
#24640562
0!
#24640937
1!
#24641312
0!
#24642062
1!
#24642812
0!
#24643187
1!
#24643562
0!
#24645062
1!
#24645812
0!
#24646562
1!
#24646937
0!
#24649562
1!
#24649937
0!
#24650687
1!
#24651062
0!
#24651437
1!
#24651812
0!
#24652562
1!
#24653312
0!
#24655562
1!
#24655937
0!
#24656687
1!
#24657812
0!
#24658562
1!
#24659312
0!
#24659687
1!
#24660437
0!
#24663062
1!
#24663437
0!
#24664562
1!
#24665312
0!
#24667187
1!
#24667562
0!
#24668687
1!
#24669062
0!
#24670187
1!
#24670562
0!
#24678750
0"
#24683375
1"
#24693687
1!
#24694062
0!
#24694437
1!
#24694812
0!
#24695562
1!
#24696312
0!
#24696687
1!
#24697812
0!
#24698187
1!
#24699312
0!
#24700062
1!
#24700437
0!
#24703062
1!
#24703437
0!
#24704187
1!
#24704562
0!
#24704937
1!
#24705312
0!
#24706062
1!
#24706812
0!
#24707187
1!
#24707562
0!
#24709062
1!
#24709812
0!
#24710562
1!
#24710937
0!
#24713562
1!
#24713937
0!
#24714687
1!
#24715062
0!
#24715437
1!
#24715812
0!
#24716562
1!
#24717312
0!
#24719562
1!
#24719937
0!
#24720687
1!
#24721812
0!
#24722562
1!
#24723312
0!
#24723687
1!
#24724437
0!
#24727062
1!
#24727437
0!
#24728562
1!
#24729312
0!
#24731187
1!
#24731562
0!
#24732687
1!
#24733062
0!
#24734187
1!
#24734562
0!
#24742750
0"
#24747375
1"
#24806750
0"
#24811375
1"
#24870750
0"
#24875375
1"
#24934750
0"
#24939375
1"
#24998750
0"
#25003375
1"
#25062750
0"
#25067375
1"
#25126750
0"
#25131375
1"
#25190750
0"
#25195375
1"
#25254750
0"
#25259375
1"
#25318750
0"
#25323375
1"
#25382750
0"
#25387375
1"
#25446750
0"
#25451375
1"
#25510750
0"
#25515375
1"
#25574750
0"
#25579375
1"
#25638750
0"
#25643375
1"
#25702750
0"
#25707375
1"
#25766750
0"
#25771375
1"
#25830750
0"
#25835375
1"
#25894750
0"
#25899375
1"
#25958750
0"
#25963375
1"
#26022750
0"
#26027375
1"
#26086750
0"
#26091375
1"
#26150750
0"
#26155375
1"
#26214750
0"
#26219375
1"
#26278750
0"
#26283375
1"
#26342750
0"
#26347375
1"
#26406750
0"
#26411375
1"
#26470750
0"
#26475375
1"
#26534750
0"
#26539375
1"
#26598750
0"
#26603375
1"
#26662750
0"
#26667375
1"
#26726750
0"
#26731375
1"
#26790750
0"
#26795375
1"
#26854750
0"
#26859375
1"
#26918750
0"
#26923375
1"
#26982750
0"
#26987375
1"
#27046750
0"
#27051375
1"
#27110750
0"
#27115375
1"
#27174750
0"
#27179375
1"
#27238750
0"
#27243375
1"
#27302750
0"
#27307375
1"
#27366750
0"
#27371375
1"
#27430750
0"
#27435375
1"
#27494750
0"
#27499375
1"
#27558750
0"
#27563375
1"
#27622750
0"
#27627375
1"
#27686750
0"
#27691375
1"
#27750750
0"
#27755375
1"
#27814750
0"
#27819375
1"
#27878750
0"
#27883375
1"
#27942750
0"
#27947375
1"
#28006750
0"
#28011375
1"
#28070750
0"
#28075375
1"
#28134750
0"
#28139375
1"
#28198750
0"
#28203375
1"
#28262750
0"
#28267375
1"
#28326750
0"
#28331375
1"
#28390750
0"
#28395375
1"
#28454750
0"
#28459375
1"
#28518750
0"
#28523375
1"
#28582750
0"
#28587375
1"
#28646750
0"
#28651375
1"
#28710750
0"
#28715375
1"
#28774750
0"
#28779375
1"
#28838750
0"
#28843375
1"
#28902750
0"
#28907375
1"
#28966750
0"
#28971375
1"
#29030750
0"
#29035375
1"
#29094750
0"
#29099375
1"
#29158750
0"
#29163375
1"
#29222750
0"
#29227375
1"
#29286750
0"
#29291375
1"
#29350750
0"
#29355375
1"
#29414750
0"
#29419375
1"
#29478750
0"
#29483375
1"
#29542750
0"
